{
  "shell_port": 55287,
  "iopub_port": 39833,
  "stdin_port": 40793,
  "control_port": 41417,
  "hb_port": 39631,
  "ip": "127.0.0.1",
  "key": "94f08521-4b85a3973925a62cd14e0f5d",
  "transport": "tcp",
  "signature_scheme": "hmac-sha256",
  "kernel_name": ""
}