{
  "shell_port": 45599,
  "iopub_port": 56895,
  "stdin_port": 56231,
  "control_port": 54145,
  "hb_port": 51911,
  "ip": "127.0.0.1",
  "key": "c205c0e1-2ff54c2f4379a3101b821682",
  "transport": "tcp",
  "signature_scheme": "hmac-sha256",
  "kernel_name": ""
}