{
  "base_url": "/user/terziimourad-mt15-2021-4azq98s0/",
  "hostname": "0.0.0.0",
  "notebook_dir": "/home/jovyan",
  "password": false,
  "pid": 25,
  "port": 8888,
  "secure": false,
  "sock": "",
  "token": "yO16SE5bQTSzrK3WtUfQrw",
  "url": "http://0.0.0.0:8888/user/terziimourad-mt15-2021-4azq98s0/"
}